^C:\USERS\SEGAT\DOCUMENTS\VISUAL STUDIO 2017\PROJECTS\WEBCREATOR\WEBCREATOR\STDAFX.CPP
C:\USERS\SEGAT\DOCUMENTS\VISUAL STUDIO 2017\PROJECTS\WEBCREATOR\WEBCREATOR\DEBUG\WEBCREATOR.PCH
C:\USERS\SEGAT\DOCUMENTS\VISUAL STUDIO 2017\PROJECTS\WEBCREATOR\WEBCREATOR\DEBUG\VC141.PDB
C:\USERS\SEGAT\DOCUMENTS\VISUAL STUDIO 2017\PROJECTS\WEBCREATOR\WEBCREATOR\DEBUG\VC141.IDB
C:\USERS\SEGAT\DOCUMENTS\VISUAL STUDIO 2017\PROJECTS\WEBCREATOR\WEBCREATOR\DEBUG\STDAFX.OBJ
^C:\USERS\SEGAT\DOCUMENTS\VISUAL STUDIO 2017\PROJECTS\WEBCREATOR\WEBCREATOR\WEBCREATOR.CPP
C:\USERS\SEGAT\DOCUMENTS\VISUAL STUDIO 2017\PROJECTS\WEBCREATOR\WEBCREATOR\DEBUG\VC141.PDB
C:\USERS\SEGAT\DOCUMENTS\VISUAL STUDIO 2017\PROJECTS\WEBCREATOR\WEBCREATOR\DEBUG\VC141.IDB
C:\USERS\SEGAT\DOCUMENTS\VISUAL STUDIO 2017\PROJECTS\WEBCREATOR\WEBCREATOR\DEBUG\WEBCREATOR.OBJ
