^C:\USERS\SEGAT\DOCUMENTS\VISUAL STUDIO 2017\PROJECTS\WEBCREATOR\WEBCREATOR\DEBUG\STDAFX.OBJ|C:\USERS\SEGAT\DOCUMENTS\VISUAL STUDIO 2017\PROJECTS\WEBCREATOR\WEBCREATOR\DEBUG\WEBCREATOR.OBJ
C:\USERS\SEGAT\DOCUMENTS\VISUAL STUDIO 2017\PROJECTS\WEBCREATOR\DEBUG\WEBCREATOR.ILK
C:\USERS\SEGAT\DOCUMENTS\VISUAL STUDIO 2017\PROJECTS\WEBCREATOR\DEBUG\WEBCREATOR.EXE
C:\USERS\SEGAT\DOCUMENTS\VISUAL STUDIO 2017\PROJECTS\WEBCREATOR\DEBUG\WEBCREATOR.PDB
